…
## Run Grid Search

In the code block below, we will perform a grid search over the values for *age-at-expense* to see how it affects the survival probability of the retirement plan across time. As its name implies, this is performed with the function `grid_search` which takes as input the `model` object, the `Logger` object type, `n_reps`, and our simulation configuration object, `config`. Internally, `grid_search` calls `simulate!` for each value of *age-at-expense*. The second line in the code block converts the results to a `DataFrame` to make subsequent analysis and plotting easier. 

```julia
# perform the grid search for age_at_expense using 10_000 reps per condition
results = grid_search(model, Logger, 10_000; config)
# convert output to data frame
df = to_dataframe(model, results)
```
```julia 
13200000×6 DataFrame
      Row │ time     rep    net_worth      interest     inflation  withdraw_age_at_expense 
          │ Float64  Int64  Float64        Float64      Float64    Int64                   
──────────┼────────────────────────────────────────────────────────────────────────────────
        1 │ 25.0833      1  12839.3         0.168697    0.0256016                       30
        2 │ 25.1667      1  14376.0        -0.0600889   0.0395033                       30
        3 │ 25.25        1  16297.6        -0.244519    0.0583386                       30
        4 │ 25.3333      1  18628.6         0.160349    0.0499842                       30
        5 │ 25.4167      1  20787.8         0.0607486   0.0499415                       30
    ⋮     │    ⋮       ⋮          ⋮             ⋮           ⋮                 ⋮
 13199997 │ 79.75    10000      6.48052e5  -0.189062    0.0411538                       60
 13199998 │ 79.8333  10000      6.43572e5   0.00590992  0.044513                        60
 13199999 │ 79.9167  10000      6.36921e5  -0.00792474  0.075874                        60
 13200000 │ 80.0     10000      6.36214e5   0.0840805   0.0522622                       60
                                                                      13199991 rows omitted
```
## Survival Analysis 

In this section, we will perform a survival analysis to determine the probability that the retirement plan will be successful (i.e., net worth > 0) as a function of time. The first step is to create a new indicator variable in the dataframe called `survived`, which is true if the
net worth at time $t$ is greater than zero, and is false otherwise. The subsequent line groups the dataframe according to the factors *age-at-expense* and *time* and computes the mean of each combination across all repetitions.  

```julia 
# code surival at each time point as true or false
df.survived = df.net_worth .> 0
# compute the surival probability as a function of age at expense and time
df_survival = combine(groupby(df, [:withdraw_age_at_expense,:time]), :survived => mean => :survival_prob)
```

```julia 
1320×3 DataFrame
  Row │ withdraw_age_at_expense  time     survival_prob 
      │ Int64                    Float64  Float64       
──────┼─────────────────────────────────────────────────
    1 │                      30  25.0833         1.0
    2 │                      30  25.1667         1.0
    3 │                      30  25.25           1.0
    4 │                      30  25.3333         1.0
    5 │                      30  25.4167         1.0
  ⋮   │            ⋮                ⋮           ⋮
 1317 │                      60  79.75           0.5792
 1318 │                      60  79.8333         0.577
 1319 │                      60  79.9167         0.5754
 1320 │                      60  80.0            0.5739
                                       1311 rows omitted
```
…
